<?xml version="1.0" encoding="UTF-8"?>
<svg viewBox="0 0 40 40" version="1.1" xmlns="http://www.w3.org/2000/svg" xmlns:xlink="http://www.w3.org/1999/xlink">
    <title>footer-btn/cross/40</title>
    <g id="footer-btn/cross/40" stroke="none" stroke-width="1" fill="none" fill-rule="evenodd">
        <rect id="btn-base" stroke="none" fill="#FFFFFF" x="2.5" y="2.5" width="35" height="35" rx="17.5"></rect>
        <path d="M27.9590774,12.4027282 C28.4960483,12.9396991 28.4960483,13.8103009 27.9590774,14.3472718 L22.1254464,20.1809028 L27.9590774,26.0145337 C28.4960483,26.5515046 28.4960483,27.4221065 27.9590774,27.9590774 C27.4221065,28.4960483 26.5515046,28.4960483 26.0145337,27.9590774 L20.1809028,22.1254464 L14.3472718,27.9590774 C13.8103009,28.4960483 12.9396991,28.4960483 12.4027282,27.9590774 C11.8657573,27.4221065 11.8657573,26.5515046 12.4027282,26.0145337 L18.2363591,20.1809028 L12.4027282,14.3472718 C11.8657573,13.8103009 11.8657573,12.9396991 12.4027282,12.4027282 C12.9396991,11.8657573 13.8103009,11.8657573 14.3472718,12.4027282 L20.1809028,18.2363591 L26.0145337,12.4027282 C26.5515046,11.8657573 27.4221065,11.8657573 27.9590774,12.4027282 Z" id="Path" fill="#89642B"></path>
    </g>
</svg>
