<?xml version="1.0" encoding="UTF-8"?>
<svg viewBox="0 0 40 40" version="1.1" xmlns="http://www.w3.org/2000/svg" xmlns:xlink="http://www.w3.org/1999/xlink">
    <title>footer-btn/delete/40</title>
    <g id="footer-btn/delete/40" stroke="none" stroke-width="1" fill="none" fill-rule="evenodd">
        <rect id="btn-base" stroke="none" fill="#FFFFFF" x="2.5" y="2.5" width="35" height="35" rx="17.5"></rect>
        <path d="M22.6,11 L22.6,13.399 L26.6,13.4 L26.6,14.2 L25.8,14.2 L25.8,27.4 C25.8,28.5045695 24.9045695,29.4 23.8,29.4 L15.8,29.4 C14.6954305,29.4 13.8,28.5045695 13.8,27.4 L13.8,14.2 L13,14.2 L13,13.4 L17,13.399 L17,11 L22.6,11 Z M17.8,15.8 L16.8,15.8 L16.8,27 L17.8,27 L17.8,15.8 Z M20.3,15.8 L19.3,15.8 L19.3,27 L20.3,27 L20.3,15.8 Z M22.8,15.8 L21.8,15.8 L21.8,27 L22.8,27 L22.8,15.8 Z M21.8,11.8 L17.8,11.8 L17.8,13.399 L21.8,13.399 L21.8,11.8 Z" id="Combined-Shape" fill="#89642B"></path>
    </g>
</svg>
