<?xml version="1.0" encoding="UTF-8"?>
<svg viewBox="0 0 40 40" version="1.1" xmlns="http://www.w3.org/2000/svg" xmlns:xlink="http://www.w3.org/1999/xlink">
    <title>btns/denom/40</title>
    <defs>
        <ellipse id="path-1" cx="6.88333333" cy="3.52857143" rx="6.88333333" ry="3.52857143"></ellipse>
        <filter x="0.0%" y="0.0%" width="100.0%" height="100.0%" filterUnits="objectBoundingBox" id="filter-2">
            <feOffset dx="0" dy="0" in="SourceAlpha" result="shadowOffsetOuter1"></feOffset>
            <feColorMatrix values="0 0 0 0 0   0 0 0 0 0   0 0 0 0 0  0 0 0 0.5 0" type="matrix" in="shadowOffsetOuter1"></feColorMatrix>
        </filter>
    </defs>
    <g id="btns/denom/40" stroke="none" stroke-width="1" fill="none" fill-rule="evenodd">
        <rect id="btn-base" stroke="none" fill="#FFFFFF" x="0.5" y="0.5" width="39" height="39" rx="19.5"></rect>
        <g id="icon-treasury-manager" transform="translate(11.000000, 9.000000)">
            <g id="chip-denom-1-copy-7">
                <path d="M13.6564766,14.8266195 C13.7288671,15.0323685 13.7666667,15.2443067 13.7666667,15.4607843 C13.7666667,17.4154392 10.6848934,19 6.88333333,19 C3.08177331,19 0,17.4154392 0,15.4607843 C0,15.2443067 0.0377995289,15.0323685 0.110190058,14.8266195 C0.690297609,16.4798074 3.5021084,17.7333333 6.88333333,17.7333333 C10.2212885,17.7333333 13.0043099,16.511685 13.6334532,14.8905204 Z" id="Combined-Shape" fill="#89642B" fill-rule="nonzero"></path>
                <path d="M13.6564766,12.740345 C13.7288671,12.946094 13.7666667,13.1580322 13.7666667,13.3745098 C13.7666667,15.3291647 10.6848934,16.9137255 6.88333333,16.9137255 C3.08177331,16.9137255 0,15.3291647 0,13.3745098 C0,13.1580322 0.0377995289,12.946094 0.110190058,12.740345 C0.690297609,14.3935328 3.5021084,15.6470588 6.88333333,15.6470588 C10.2212885,15.6470588 13.0043099,14.4254105 13.6334532,12.8042459 Z" id="Combined-Shape" fill="#89642B" fill-rule="nonzero"></path>
                <path d="M13.6631081,10.6732199 C13.731174,10.872962 13.7666667,11.0784675 13.7666667,11.2882353 C13.7666667,13.2428901 10.6848934,14.827451 6.88333333,14.827451 C3.08177331,14.827451 0,13.2428901 0,11.2882353 C0,11.0784675 0.035492642,10.872962 0.103558591,10.6732199 C0.668602087,12.3348188 3.48905878,13.5980392 6.88333333,13.5980392 C10.2212885,13.5980392 13.0043099,12.3763909 13.6334532,10.7552263 Z" id="Combined-Shape" fill="#89642B" fill-rule="nonzero"></path>
                <path d="M13.6631081,8.62420028 C13.731174,8.82394237 13.7666667,9.02944785 13.7666667,9.23921569 C13.7666667,11.1938705 10.6848934,12.7784314 6.88333333,12.7784314 C3.08177331,12.7784314 0,11.1938705 0,9.23921569 C0,9.02944785 0.035492642,8.82394237 0.103558591,8.62420028 C0.668602087,10.2857992 3.48905878,11.5490196 6.88333333,11.5490196 C10.2212885,11.5490196 13.0043099,10.3273713 13.6334532,8.70620668 Z" id="Combined-Shape" fill="#89642B" fill-rule="nonzero"></path>
                <path d="M13.6631081,6.57518067 C13.731174,6.77492276 13.7666667,6.98042824 13.7666667,7.19019608 C13.7666667,9.14485093 10.6848934,10.7294118 6.88333333,10.7294118 C3.08177331,10.7294118 0,9.14485093 0,7.19019608 C0,6.98042824 0.035492642,6.77492276 0.103558591,6.57518067 C0.668602087,8.23677954 3.48905878,9.5 6.88333333,9.5 C10.2212885,9.5 13.0043099,8.27835167 13.6334532,6.65718707 Z" id="Combined-Shape" fill="#89642B" fill-rule="nonzero"></path>
                <g id="Group-4">
                    <path d="M13.6631081,4.15361205 C13.731174,4.35335413 13.7666667,4.55885961 13.7666667,4.76862745 C13.7666667,6.7232823 10.6848934,8.30784314 6.88333333,8.30784314 C3.08177331,8.30784314 0,6.7232823 0,4.76862745 C0,4.55885961 0.035492642,4.35335413 0.103558591,4.15361205 C0.668602087,5.81521092 3.48905878,7.07843137 6.88333333,7.07843137 C10.2212885,7.07843137 13.0043099,5.85678304 13.6334532,4.23561845 Z" id="Combined-Shape" fill="#89642B" fill-rule="nonzero"></path>
                    <path d="M6.88333333,0.447058824 C9.72222222,0.447058824 12.0166667,1.63921569 12.0166667,3.09215686 C12.0166667,4.54509804 9.72222222,5.7372549 6.88333333,5.7372549 C4.04444444,5.7372549 1.71111111,4.54509804 1.71111111,3.09215686 C1.71111111,1.63921569 4.00555556,0.447058824 6.88333333,0.447058824 L6.88333333,0.447058824 Z M6.88333333,0 C3.53888889,0 0.855555556,1.37843137 0.855555556,3.09215686 C0.855555556,4.80588235 3.53888889,6.18431373 6.88333333,6.18431373 C10.2277778,6.18431373 12.9111111,4.80588235 12.9111111,3.09215686 C12.9111111,1.37843137 10.1888889,0 6.88333333,0 L6.88333333,0 L6.88333333,0 Z" id="_x34_4ba5fdb-e859-402d-a709-27743707b7f9" fill="#89642B" fill-rule="nonzero"></path>
                    <path d="M6.88333333,1.52745098 C8.55555556,1.52745098 9.87777778,2.23529412 9.87777778,3.05490196 C9.87777778,3.8745098 8.51666667,4.58235294 6.88333333,4.58235294 C5.25,4.58235294 3.88888889,3.8745098 3.88888889,3.05490196 C3.88888889,2.23529412 5.21111111,1.52745098 6.88333333,1.52745098 L6.88333333,1.52745098 Z M6.88333333,1.11764706 C4.74444444,1.11764706 3.03333333,2.01176471 3.03333333,3.09215686 C3.03333333,4.17254902 4.74444444,5.06666667 6.88333333,5.06666667 C9.02222222,5.06666667 10.7333333,4.17254902 10.7333333,3.09215686 C10.7333333,2.01176471 9.02222222,1.11764706 6.88333333,1.11764706 L6.88333333,1.11764706 L6.88333333,1.11764706 Z" id="_x33_b8a849a-dfaf-438f-be83-905bce767927" fill="#89642B" fill-rule="nonzero"></path>
                    <line x1="6.88333333" y1="0.223529412" x2="6.88333333" y2="1.34117647" id="_x33_f1591c2-abff-4c7a-85e8-22c257d19b89" stroke="#89642B"></line>
                    <line x1="6.65" y1="4.84313725" x2="6.65" y2="5.96078431" id="_x38_00e8a22-53f3-478f-be5f-3d9a6cb98823" stroke="#89642B"></line>
                    <line x1="10.3055556" y1="2.86862745" x2="12.4444444" y2="2.86862745" id="_x36_78d244f-b88f-42b2-95bf-f595db3cb404" stroke="#89642B"></line>
                    <line x1="1.28333333" y1="2.86862745" x2="3.42222222" y2="2.86862745" id="_x35_1f30a13-00da-4f03-87b8-6b91c7c51367" stroke="#89642B"></line>
                    <line x1="10.7333333" y1="1.05688625" x2="9.33056104" y2="1.85363958" id="_x35_c9594bf-492b-4d8f-9f1f-3d275a2ad2e3" stroke="#89642B"></line>
                    <line x1="4.45121478" y1="4.28431373" x2="2.92177026" y2="5.06666667" id="_x31_6e3e135-1169-4e04-87ce-a5bc71f06f98" stroke="#89642B"></line>
                    <line x1="9.23345753" y1="4.28431373" x2="10.8093446" y2="5.17843137" id="_x38_31465b8-b8e1-41a3-8673-bb8ff6bd1c03" stroke="#89642B"></line>
                    <line x1="2.92177026" y1="1.05688625" x2="4.45121478" y2="1.85363958" id="_x36_7dcd8c4-fc1d-4c24-8850-c3ca9c2a1769" stroke="#89642B"></line>
                </g>
            </g>
            <g id="chip-denom-1-copy-8" transform="translate(4.000000, 10.000000)">
                <ellipse id="_x35_45a0e15-130c-492a-abc4-02c58df5b935-copy-4_1_" fill="#FFFFFF" fill-rule="nonzero" cx="6.88333333" cy="9.17428571" rx="6.88333333" ry="3.52857143"></ellipse>
                <path d="M13.6568306,8.58017495 C13.7289904,8.78499068 13.7666667,8.99595413 13.7666667,9.21142857 C13.7666667,11.1602048 10.6848934,12.74 6.88333333,12.74 C3.08177331,12.74 0,11.1602048 0,9.21142857 C0,8.99595413 0.0376763032,8.78499068 0.109836057,8.58017495 C0.690911397,10.2276597 3.50247744,11.4771429 6.88333333,11.4771429 C10.2212885,11.4771429 13.0043099,10.2591687 13.6334532,8.64287974 Z" id="Combined-Shape" fill="#89642B" fill-rule="nonzero"></path>
                <ellipse id="_x35_45a0e15-130c-492a-abc4-02c58df5b935-copy-9" fill="#89642B" fill-rule="nonzero" cx="6.88333333" cy="7.09428571" rx="6.88333333" ry="3.52857143"></ellipse>
                <ellipse id="_x35_45a0e15-130c-492a-abc4-02c58df5b935-copy-8" fill="#FFFFFF" fill-rule="nonzero" cx="6.88333333" cy="5.83142857" rx="6.88333333" ry="3.52857143"></ellipse>
                <g id="Group-4_1_">
                    <ellipse id="_x35_45a0e15-130c-492a-abc4-02c58df5b935-copy-3_1_" fill="#89642B" fill-rule="nonzero" cx="6.88333333" cy="4.75428571" rx="6.88333333" ry="3.52857143"></ellipse>
                    <g id="_x35_45a0e15-130c-492a-abc4-02c58df5b935-copy-2_1_" fill-rule="nonzero">
                        <use fill="black" fill-opacity="1" filter="url(#filter-2)" xlink:href="#path-1"></use>
                        <use fill="#FFFFFF" xlink:href="#path-1"></use>
                    </g>
                    <path d="M6.88333333,0.854285714 C9.72222222,0.854285714 12.0166667,1.96857143 12.0166667,3.38 C12.0166667,4.79142857 9.72222222,5.90571429 6.88333333,5.90571429 C4.04444444,5.90571429 1.75,4.79142857 1.75,3.38 C1.75,1.96857143 4.00555556,0.854285714 6.88333333,0.854285714 L6.88333333,0.854285714 Z M6.88333333,0.445714286 C3.57777778,0.445714286 0.855555556,1.78285714 0.855555556,3.38 C0.855555556,4.97714286 3.53888889,6.31428571 6.88333333,6.31428571 C10.2277778,6.31428571 12.9111111,4.97714286 12.9111111,3.38 C12.9111111,1.78285714 10.1888889,0.445714286 6.88333333,0.445714286 L6.88333333,0.445714286 L6.88333333,0.445714286 Z" id="_x34_4ba5fdb-e859-402d-a709-27743707b7f9_1_" fill="#89642B" fill-rule="nonzero"></path>
                    <path d="M6.88333333,1.89428571 C8.55555556,1.89428571 9.87777778,2.56285714 9.87777778,3.38 C9.87777778,4.19714286 8.51666667,4.86571429 6.88333333,4.86571429 C5.25,4.86571429 3.88888889,4.19714286 3.88888889,3.38 C3.88888889,2.56285714 5.21111111,1.89428571 6.88333333,1.89428571 L6.88333333,1.89428571 Z M6.88333333,1.48571429 C4.74444444,1.48571429 3.03333333,2.34 3.03333333,3.38 C3.03333333,4.42 4.74444444,5.27428571 6.88333333,5.27428571 C9.02222222,5.27428571 10.7333333,4.42 10.7333333,3.38 C10.7333333,2.34 9.02222222,1.48571429 6.88333333,1.48571429 L6.88333333,1.48571429 L6.88333333,1.48571429 Z" id="_x33_b8a849a-dfaf-438f-be83-905bce767927_1_" fill="#89642B" fill-rule="nonzero"></path>
                    <line x1="6.88333333" y1="0.631428571" x2="6.88333333" y2="1.67142857" id="_x33_f1591c2-abff-4c7a-85e8-22c257d19b89_1_" stroke="#89642B"></line>
                    <line x1="6.65" y1="5.08857143" x2="6.65" y2="6.12857143" id="_x38_00e8a22-53f3-478f-be5f-3d9a6cb98823_1_" stroke="#89642B"></line>
                    <line x1="10.3055556" y1="3.04571429" x2="12.4444444" y2="3.04571429" id="_x36_78d244f-b88f-42b2-95bf-f595db3cb404_1_" stroke="#89642B"></line>
                    <line x1="1.28333333" y1="3.04571429" x2="3.42222222" y2="3.04571429" id="_x35_1f30a13-00da-4f03-87b8-6b91c7c51367_1_" stroke="#89642B"></line>
                    <line x1="10.814795" y1="1.44444444" x2="9.27269779" y2="2.20283339" id="_x35_c9594bf-492b-4d8f-9f1f-3d275a2ad2e3_1_" stroke="#89642B"></line>
                    <line x1="4.43459113" y1="4.53142857" x2="2.93856088" y2="5.31650877" id="_x31_6e3e135-1169-4e04-87ce-a5bc71f06f98_1_" stroke="#89642B"></line>
                    <line x1="9.38618334" y1="4.53142857" x2="10.7333333" y2="5.31650877" id="_x38_31465b8-b8e1-41a3-8673-bb8ff6bd1c03_1_" stroke="#89642B"></line>
                    <line x1="2.93856088" y1="1.48571429" x2="4.43459113" y2="2.20283339" id="_x36_7dcd8c4-fc1d-4c24-8850-c3ca9c2a1769_1_" stroke="#89642B"></line>
                </g>
            </g>
        </g>
    </g>
</svg>
