<?xml version="1.0" encoding="UTF-8"?>
<svg viewBox="0 0 22 23" version="1.1" xmlns="http://www.w3.org/2000/svg" xmlns:xlink="http://www.w3.org/1999/xlink">
    <title>*icon/status/rating-rejected</title>
    <g id="Page-1" stroke="none" stroke-width="1" fill="none" fill-rule="evenodd">
        <g id="Glossary" transform="translate(-283.000000, -138.000000)">
            <g id="Group-35" transform="translate(282.000000, 25.250000)">
                <g id="*icon/status/rejected" transform="translate(0.000000, 112.000000)">
                    <circle id="Oval" stroke="#1C1C1C" stroke-width="2" fill="#FFFFFF" cx="12" cy="12" r="10"></circle>
                    <path d="M12,5.36198344 C15.6660753,5.36198344 18.6380166,8.33392468 18.6380166,12 C18.6380166,15.6660753 15.6660753,18.6380166 12,18.6380166 C8.33392468,18.6380166 5.36198344,15.6660753 5.36198344,12 C5.36198344,8.33392468 8.33392468,5.36198344 12,5.36198344 Z M16.5296871,13.001141 L7.47031294,13.001141 C7.92801136,15.0814087 9.78222306,16.6380166 12,16.6380166 C14.2177769,16.6380166 16.0719886,15.0814087 16.5296871,13.001141 Z M12,7.36198344 C9.78186906,7.36198344 7.92741944,8.91908825 7.47009388,10.9998551 L16.5299061,10.9998551 C16.0725806,8.91908825 14.2181309,7.36198344 12,7.36198344 Z" id="Combined-Shape" fill="#9C1C23" transform="translate(12.000000, 12.000000) rotate(-45.000000) translate(-12.000000, -12.000000) "></path>
                </g>
            </g>
        </g>
    </g>
</svg>
