<?xml version="1.0" encoding="UTF-8"?>
<svg viewBox="0 0 22 23" version="1.1" xmlns="http://www.w3.org/2000/svg" xmlns:xlink="http://www.w3.org/1999/xlink">
    <title>*icon/status/rating-pending</title>
    <defs>
        <circle id="path-1" cx="12" cy="12" r="10"></circle>
        <circle id="path-3" cx="12" cy="12" r="10"></circle>
    </defs>
    <g id="Page-1" stroke="none" stroke-width="1" fill="none" fill-rule="evenodd">
        <g id="Glossary" transform="translate(-283.000000, -58.000000)">
            <g id="Group-35" transform="translate(282.000000, 25.250000)">
                <g id="*icon/status/auto-cancelled-copy" transform="translate(0.000000, 32.000000)">
                    <mask id="mask-2" fill="white">
                        <use xlink:href="#path-1"></use>
                    </mask>
                    <use id="Oval" fill="#FFFFFF" xlink:href="#path-1"></use>
                    <mask id="mask-4" fill="white">
                        <use xlink:href="#path-3"></use>
                    </mask>
                    <use id="Oval-Copy" stroke="#1C1C1C" stroke-width="2" fill="#FFFFFF" xlink:href="#path-3"></use>
                    <path d="M17,6 L17,7.02859502 L16,7.02859502 C16.1788482,9.46465558 15.5936093,11.2884572 14.2442834,12.5 C15.4787976,13.5558042 16.0713313,15.208004 16.0218846,17.4565996 L17,17.4571075 L17,18.4857025 L7,18.4857025 L7,17.4571075 L8.00893522,17.4560434 C8.08844571,15.2077316 8.69860231,13.5557171 9.83940501,12.5 C8.613135,11.3607087 8,9.53690706 8,7.02859502 L7,7.02859502 L7,6 L17,6 Z M15.029,8.028 L9.038,8.028 L9.06250004,8.29814728 C9.21821954,9.78214764 9.66292842,10.8823539 10.3742417,11.6238624 L10.5200524,11.7673888 L11.3101498,12.501445 L10.5186115,13.2339472 C9.72308109,13.9701438 9.22848798,15.1153066 9.06247195,16.6999976 L9.038,16.971 L9.58219619,16.96934 C9.87496897,16.3289946 10.1572473,15.861732 10.4290311,15.5675522 C10.7107319,15.2626381 11.2058368,14.9004757 11.9143459,14.4810648 L11.9143459,14.4810648 L12.0156985,14.4810648 C12.6887208,14.8997501 13.160365,15.2619126 13.4306312,15.5675522 C13.7008973,15.8731917 13.983549,16.3640501 14.2785861,17.0401273 L14.247,16.971 L15.022,16.971 L15.0133452,16.7139892 C14.9387451,15.2211074 14.5068705,14.1281131 13.7416968,13.393518 L13.5943267,13.2599712 L12.7271139,12.5182974 L13.5761876,11.7559248 C14.4638206,10.9589302 14.9525704,9.81090099 15.0228415,8.26220519 L15.029,8.028 Z M13.2685146,10.7865243 C13.0721436,11.1829721 12.9074127,11.4702366 12.7743217,11.648318 C12.6412307,11.8263993 12.4191411,12.0567169 12.1080529,12.3392709 L11.8478224,12.3392709 C11.5485121,12.0522102 11.3382166,11.8218926 11.216936,11.648318 C11.0956554,11.4747434 10.9443042,11.1874788 10.7628823,10.7865243 L13.2685146,10.7865243 Z" id="Combined-Shape" fill="#9C1C23" fill-rule="nonzero" mask="url(#mask-4)"></path>
                </g>
            </g>
        </g>
    </g>
</svg>
