<?xml version="1.0" encoding="UTF-8"?>
<svg viewBox="0 0 23 22" version="1.1" xmlns="http://www.w3.org/2000/svg" xmlns:xlink="http://www.w3.org/1999/xlink">
    <title>*icon/status/submitted copy 2</title>
    <g id="Page-1" stroke="none" stroke-width="1" fill="none" fill-rule="evenodd">
        <g id="Glossary" transform="translate(-26.000000, -142.000000)">
            <g id="Group-36" transform="translate(25.000000, 25.250000)">
                <g id="Group-29" transform="translate(0.500000, 115.000000)">
                    <g id="Group" transform="translate(0.000000, 0.750000)">
                        <circle id="Oval" stroke="#1C1C1C" stroke-width="2" fill="#FFFFFF" cx="12" cy="12" r="10"></circle>
                        <path d="M12,5 C12.5522847,5 13,5.44771525 13,6 L13,11 L18,11 C18.5522847,11 19,11.4477153 19,12 C19,12.5522847 18.5522847,13 18,13 L13,13 L13,18 C13,18.5522847 12.5522847,19 12,19 C11.4477153,19 11,18.5522847 11,18 L11,13 L6,13 C5.44771525,13 5,12.5522847 5,12 C5,11.4477153 5.44771525,11 6,11 L11,11 L11,6 C11,5.44771525 11.4477153,5 12,5 Z" id="Combined-Shape" fill="#9C1C23" transform="translate(12.000000, 12.000000) rotate(-315.000000) translate(-12.000000, -12.000000) "></path>
                    </g>
                </g>
            </g>
        </g>
    </g>
</svg>
