<?xml version="1.0" encoding="UTF-8"?>
<svg viewBox="0 0 40 40" version="1.1" xmlns="http://www.w3.org/2000/svg" xmlns:xlink="http://www.w3.org/1999/xlink">
    <title>icon-cards-40</title>
    <g id="icon-cards-40" stroke="none" stroke-width="1" fill="none" fill-rule="evenodd">
        <g id="Group" transform="translate(3, 5)">
            <g id="icon-card-sample" transform="translate(24.7723, 12.6418) rotate(-345) translate(-24.7723, -12.6418)translate(17.9032, 1.3946)">
                <rect id="Rectangle" stroke="#BB9156" fill="#FFFFFF" x="0.5" y="0.5" width="12.7381215" height="21.4944078" rx="3.45459189"></rect>
                <polygon id="Rectangle" fill="#9C1C23" points="6.86906077 6.51724732 9.47202955 11.2472039 6.86906077 15.9318761 4.29192911 11.2648029"></polygon>
            </g>
            <g id="icon-card-sample" transform="translate(10.6458, 2.2387)">
                <rect id="Rectangle" fill="#FFFFFF" x="1.00000032" y="0" width="13.7381215" height="22.4944078" rx="3.45459189"></rect>
                <rect id="Rectangle-Copy-2" stroke="#BB9156" fill="#FFFFFF" x="0.5" y="1.50000045" width="12.7381215" height="21.4944078" rx="3.45459189"></rect>
                <polygon id="Rectangle" fill="#9C1C23" points="6.86906077 7.51724777 9.47202955 12.2472044 6.86906077 16.9318765 4.29192911 12.2648033"></polygon>
            </g>
            <g id="icon-card-sample" transform="translate(10.354, 17.6019) rotate(-15) translate(-10.354, -17.6019)translate(2.8079, 5.7597)">
                <rect id="Rectangle" fill="#FFFFFF" x="1.35415388" y="0" width="13.7381215" height="22.4944078" rx="3.45459189"></rect>
                <rect id="Rectangle-Copy" stroke="#BB9156" fill="#FFFFFF" x="0.5" y="1.69006969" width="12.7381215" height="21.4944078" rx="3.45459189"></rect>
                <polygon id="Rectangle" fill="#9C1C23" points="6.86906077 7.70731701 9.47202955 12.4372736 6.86906077 17.1219457 4.29192911 12.4548726"></polygon>
            </g>
        </g>
    </g>
</svg>