<?xml version="1.0" encoding="UTF-8"?>
<svg viewBox="0 0 48 48" version="1.1" xmlns="http://www.w3.org/2000/svg" xmlns:xlink="http://www.w3.org/1999/xlink">
    <title>footer-btn/link/48</title>
    <g id="footer-btn/link/48" stroke="none" stroke-width="1" fill="none" fill-rule="evenodd">
        <rect id="btn-base" stroke="none" fill="#FFFFFF" x="2.5" y="2.5" width="43" height="43" rx="21.5"></rect>
        <path d="M23,25 C23,27.209139 21.209139,29 19,29 L15,29 C12.790861,29 11,27.209139 11,25 L11,23 C11,20.790861 12.790861,19 15,19 L19,19 C21.209139,19 23,20.790861 23,23 L25,23 C25,20.790861 26.790861,19 29,19 L33,19 C35.209139,19 37,20.790861 37,23 L37,25 C37,27.209139 35.209139,29 33,29 L29,29 C26.790861,29 25,27.209139 25,25 L23,25 Z M19,21 L15,21 L14.8249178,21.0075563 C14.3633592,21.0475781 13.9466515,21.2443474 13.6283804,21.5444271 C13.2600458,21.8917087 13.0389256,22.3797903 13,23.0280243 L13,23.0280243 L13,25 L13.0075563,25.1750822 C13.0475781,25.6366408 13.2443474,26.0533485 13.5444271,26.3716196 C13.8917087,26.7399542 14.3797903,26.9610744 15.0280243,27 L15.0280243,27 L19,27 L19.1750822,26.9924437 C19.6366408,26.9524219 20.0533485,26.7556526 20.3716196,26.4555729 C20.7399542,26.1082913 20.9610744,25.6202097 21,24.9719757 L20.997,25 L20,25 L20,23 L21,23 L20.9918267,22.8179592 C20.9485493,22.3383087 20.7359281,21.9075009 20.4142136,21.5857864 C20.0522847,21.2238576 19.5522847,21 19,21 L19,21 Z M33,21 L29,21 L28.8249178,21.0075563 C28.3633592,21.0475781 27.9466515,21.2443474 27.6283804,21.5444271 C27.3009719,21.8531219 27.0898809,22.273066 27.0196752,22.8178513 L27.003,23 L28,23 L28,25 L27,25 L27.0075563,25.1750822 C27.0475781,25.6366408 27.2443474,26.0533485 27.5444271,26.3716196 C27.8531219,26.6990281 28.273066,26.9101191 28.8178513,26.9803248 L29.0280243,27 L33,27 L33.1750822,26.9924437 C33.6366408,26.9524219 34.0533485,26.7556526 34.3716196,26.4555729 C34.6990281,26.1468781 34.9101191,25.726934 34.9803248,25.1821487 L35,24.9719757 L35,23 L34.9918267,22.8179592 C34.9485493,22.3383087 34.7359281,21.9075009 34.4142136,21.5857864 C34.0522847,21.2238576 33.5522847,21 33,21 Z" id="Combined-Shape" fill="#89642B" fill-rule="nonzero" transform="translate(24.000000, 24.000000) rotate(-45.000000) translate(-24.000000, -24.000000) "></path>
    </g>
</svg>
