<?xml version="1.0" encoding="UTF-8"?>
<svg viewBox="0 0 48 48" version="1.1" xmlns="http://www.w3.org/2000/svg" xmlns:xlink="http://www.w3.org/1999/xlink">
    <title>footer-btn/template/48/default</title>
    <g id="footer-btn/template/48/default" stroke="none" stroke-width="1" fill="none" fill-rule="evenodd">
        <rect id="btn-base" stroke="none" fill="#FFFFFF" x="2.5" y="2.5" width="43" height="43" rx="21.5"></rect>
        <path d="M32,13.5 C32.4142136,13.5 32.7892136,13.6678932 33.0606602,13.9393398 C33.3321068,14.2107864 33.5,14.5857864 33.5,15 L33.5,15 L33.5,33 C33.5,33.4142136 33.3321068,33.7892136 33.0606602,34.0606602 C32.7892136,34.3321068 32.4142136,34.5 32,34.5 L32,34.5 L16,34.5 C15.5857864,34.5 15.2107864,34.3321068 14.9393398,34.0606602 C14.6678932,33.7892136 14.5,33.4142136 14.5,33 L14.5,33 L14.5,15 C14.5,14.5857864 14.6678932,14.2107864 14.9393398,13.9393398 C15.2107864,13.6678932 15.5857864,13.5 16,13.5 L16,13.5 Z" id="Rectangle" stroke="#89642B"></path>
        <path d="M30,29 C30.5522847,29 31,29.4477153 31,30 C31,30.5522847 30.5522847,31 30,31 L22,31 C21.4477153,31 21,30.5522847 21,30 C21,29.4477153 21.4477153,29 22,29 L30,29 Z M18,29 C18.5522847,29 19,29.4477153 19,30 C19,30.5522847 18.5522847,31 18,31 C17.4477153,31 17,30.5522847 17,30 C17,29.4477153 17.4477153,29 18,29 Z M30,24 C30.5522847,24 31,24.4477153 31,25 C31,25.5522847 30.5522847,26 30,26 L22,26 C21.4477153,26 21,25.5522847 21,25 C21,24.4477153 21.4477153,24 22,24 L30,24 Z M18,24 C18.5522847,24 19,24.4477153 19,25 C19,25.5522847 18.5522847,26 18,26 C17.4477153,26 17,25.5522847 17,25 C17,24.4477153 17.4477153,24 18,24 Z M24,17 C25.1045695,17 26,17.8954305 26,19 C26,20.1045695 25.1045695,21 24,21 L19,21 C17.8954305,21 17,20.1045695 17,19 C17,17.8954305 17.8954305,17 19,17 L24,17 Z" id="Combined-Shape" fill="#89642B"></path>
    </g>
</svg>
