<?xml version="1.0" encoding="UTF-8"?>
<svg viewBox="0 0 40 40" version="1.1" xmlns="http://www.w3.org/2000/svg" xmlns:xlink="http://www.w3.org/1999/xlink">
    <title>footer-btn/template/40/default</title>
    <g id="footer-btn/template/40/default" stroke="none" stroke-width="1" fill="none" fill-rule="evenodd">
        <rect id="btn-base" stroke="none" fill="#FFFFFF" x="2.5" y="2.5" width="35" height="35" rx="17.5"></rect>
        <path d="M28,9.5 C28.4142136,9.5 28.7892136,9.66789322 29.0606602,9.93933983 C29.3321068,10.2107864 29.5,10.5857864 29.5,11 L29.5,11 L29.5,29 C29.5,29.4142136 29.3321068,29.7892136 29.0606602,30.0606602 C28.7892136,30.3321068 28.4142136,30.5 28,30.5 L28,30.5 L12,30.5 C11.5857864,30.5 11.2107864,30.3321068 10.9393398,30.0606602 C10.6678932,29.7892136 10.5,29.4142136 10.5,29 L10.5,29 L10.5,11 C10.5,10.5857864 10.6678932,10.2107864 10.9393398,9.93933983 C11.2107864,9.66789322 11.5857864,9.5 12,9.5 L12,9.5 Z" id="Rectangle" stroke="#89642B"></path>
        <path d="M26,25 C26.5522847,25 27,25.4477153 27,26 C27,26.5522847 26.5522847,27 26,27 L18,27 C17.4477153,27 17,26.5522847 17,26 C17,25.4477153 17.4477153,25 18,25 L26,25 Z M14,25 C14.5522847,25 15,25.4477153 15,26 C15,26.5522847 14.5522847,27 14,27 C13.4477153,27 13,26.5522847 13,26 C13,25.4477153 13.4477153,25 14,25 Z M26,20 C26.5522847,20 27,20.4477153 27,21 C27,21.5522847 26.5522847,22 26,22 L18,22 C17.4477153,22 17,21.5522847 17,21 C17,20.4477153 17.4477153,20 18,20 L26,20 Z M14,20 C14.5522847,20 15,20.4477153 15,21 C15,21.5522847 14.5522847,22 14,22 C13.4477153,22 13,21.5522847 13,21 C13,20.4477153 13.4477153,20 14,20 Z M20,13 C21.1045695,13 22,13.8954305 22,15 C22,16.1045695 21.1045695,17 20,17 L15,17 C13.8954305,17 13,16.1045695 13,15 C13,13.8954305 13.8954305,13 15,13 L20,13 Z" id="Combined-Shape" fill="#89642B"></path>
    </g>
</svg>
