<?xml version="1.0" encoding="UTF-8"?>
<svg viewBox="0 0 36 36" version="1.1" xmlns="http://www.w3.org/2000/svg" xmlns:xlink="http://www.w3.org/1999/xlink">
    <title>template-applied-40</title>
    <g id="Page-1" stroke="none" stroke-width="1" fill="none" fill-rule="evenodd">
        <g id="template-applied-40">
            <rect id="btn-base" stroke="none" fill="#FFFFFF" fill-rule="nonzero" x="0.5" y="0.5" width="35" height="35" rx="17.5"></rect>
            <path d="M26,7.5 C26.4142136,7.5 26.7892136,7.66789322 27.0606602,7.93933983 C27.3321068,8.2107864 27.5,8.5857864 27.5,9 L27.5,9 L27.5,27 C27.5,27.4142136 27.3321068,27.7892136 27.0606602,28.0606602 C26.7892136,28.3321068 26.4142136,28.5 26,28.5 L26,28.5 L10,28.5 C9.5857864,28.5 9.2107864,28.3321068 8.9393398,28.0606602 C8.6678932,27.7892136 8.5,27.4142136 8.5,27 L8.5,27 L8.5,9 C8.5,8.5857864 8.6678932,8.2107864 8.9393398,7.93933983 C9.2107864,7.66789322 9.5857864,7.5 10,7.5 L10,7.5 L26,7.5 Z" id="Rectangle" stroke="#89642B"></path>
            <path d="M24,23 C24.5522847,23 25,23.4477153 25,24 C25,24.5522847 24.5522847,25 24,25 L16,25 C15.4477153,25 15,24.5522847 15,24 C15,23.4477153 15.4477153,23 16,23 L24,23 Z M12,23 C12.5522847,23 13,23.4477153 13,24 C13,24.5522847 12.5522847,25 12,25 C11.4477153,25 11,24.5522847 11,24 C11,23.4477153 11.4477153,23 12,23 Z M24,18 C24.5522847,18 25,18.4477153 25,19 C25,19.5522847 24.5522847,20 24,20 L16,20 C15.4477153,20 15,19.5522847 15,19 C15,18.4477153 15.4477153,18 16,18 L24,18 Z M12,18 C12.5522847,18 13,18.4477153 13,19 C13,19.5522847 12.5522847,20 12,20 C11.4477153,20 11,19.5522847 11,19 C11,18.4477153 11.4477153,18 12,18 Z M18,11 C19.1045695,11 20,11.8954305 20,13 C20,14.1045695 19.1045695,15 18,15 L13,15 C11.8954305,15 11,14.1045695 11,13 C11,11.8954305 11.8954305,11 13,11 L18,11 Z" id="Combined-Shape" fill="#89642B" fill-rule="nonzero"></path>
            <path d="M22.7543909,18.006661 C23.3292616,17.6958815 23.8248102,17.6838061 24.2684054,17.831114 C24.7161739,17.9798077 25.1149938,18.3037923 25.3677708,18.7751828 C25.6335378,19.2707976 25.6875624,19.8354751 25.5600647,20.3477847 C25.4325669,20.8600944 25.123547,21.3200361 24.663225,21.6061795 L24.663225,21.6061795 L10.3739269,30.4886302 C9.873542,30.7580774 9.3554924,30.7991347 8.901907,30.6668084 C8.4243746,30.527496 8.0131134,30.1956979 7.755801,29.7095849 L7.755801,29.7095849 L4.64787071,23.8376356 C4.40128105,23.2995347 4.36528125,22.7437268 4.48904238,22.2573832 C4.61933607,21.7453686 4.92700194,21.3048283 5.37668453,21.028901 C5.90691727,20.7521672 6.41542923,20.7161922 6.86112409,20.8476756 C7.33667732,20.9879676 7.74583928,21.3192292 8.0021012,21.8033922 L8.0021012,21.8033922 L10.1420373,25.8463291 L22.7543909,18.006661 Z" id="Path" stroke="#FFFFFF" stroke-width="1.2" fill="#89642B" fill-rule="nonzero"></path>
        </g>
    </g>
</svg>
